{
  "project_info": {
    "project_number": "205822215923",
    "firebase_url": "https://chat-test2-4fcc4-default-rtdb.asia-southeast1.firebasedatabase.app",
    "project_id": "chat-test2-4fcc4",
    "storage_bucket": "chat-test2-4fcc4.appspot.com"
  },
  "client": [
    {
      "client_info": {
        "mobilesdk_app_id": "1:205822215923:android:534349b46c7f9f0a2bd986",
        "android_client_info": {
          "package_name": "com.chatapp1"
        }
      },
      "oauth_client": [
        {
          "client_id": "205822215923-15ubrsfpmf54eub1fqatr6fv2nvkgfab.apps.googleusercontent.com",
          "client_type": 3
        }
      ],
      "api_key": [
        {
          "current_key": "AIzaSyA5DBWSO4Fn1o8Nn6eb7i3NZObsGnZCiIg"
        }
      ],
      "services": {
        "appinvite_service": {
          "other_platform_oauth_client": [
            {
              "client_id": "205822215923-15ubrsfpmf54eub1fqatr6fv2nvkgfab.apps.googleusercontent.com",
              "client_type": 3
            }
          ]
        }
      }
    }
  ],
  "configuration_version": "1"
}